Import Various Northern and Southern Hemisphere Climate Indices • rsoi
…
An R package to download the most up to date - Southern Oscillation Index - Oceanic Nino Index - North Pacific Gyre Oscillation data - North Atlantic Oscillation - Arctic Oscillation

Installation

install.packages("rsoi")

library(rsoi)
library(ggplot2)
library(tibble)

Usage

enso <- download_enso()
enso
#> # A tibble: 805 x 7
#>    Date        Year Month    ONI phase                SOI   NPGO
#>    <date>     <int> <ord>  <dbl> <fct>              <dbl>  <dbl>
#>  1 1951-02-01  1951 Feb   -0.54  Cool Phase/El Nino   0.9 -0.414
#>  2 1951-03-01  1951 Mar   -0.167 Neutral Phase       -0.1 -0.570
#>  3 1951-04-01  1951 Apr    0.177 Neutral Phase       -0.3 -0.561
#>  4 1951-05-01  1951 May    0.363 Neutral Phase       -0.7 -1.07 
#>  5 1951-06-01  1951 Jun    0.587 Warm Phase/La Nina   0.2 -1.44 
#>  6 1951-07-01  1951 Jul    0.7   Warm Phase/La Nina  -1   -1.10 
#>  7 1951-08-01  1951 Aug    0.887 Warm Phase/La Nina  -0.2 -1.17 
#>  8 1951-09-01  1951 Sep    0.993 Warm Phase/La Nina  -1.1 -1.42 
#>  9 1951-10-01  1951 Oct    1.15  Warm Phase/La Nina  -1   -1.07 
#> 10 1951-11-01  1951 Nov    1.04  Warm Phase/La Nina  -0.8 -1.01 
#> # ... with 795 more rows

Or for index specific data use the  argument:

soi <- download_enso(climate_idx = "soi")
soi
#> # A tibble: 813 x 5
#>    Date       Month Year    SOI SOI_3MON_AVG
#>    <date>     <ord> <chr> <dbl>        <dbl>
#>  1 1951-02-01 Feb   1951    0.9       NA    
#>  2 1951-03-01 Mar   1951   -0.1        0.167
#>  3 1951-04-01 Apr   1951   -0.3       -0.367
#>  4 1951-05-01 May   1951   -0.7       -0.267
#>  5 1951-06-01 Jun   1951    0.2       -0.5  
#>  6 1951-07-01 Jul   1951   -1         -0.333
#>  7 1951-08-01 Aug   1951   -0.2       -0.767
#>  8 1951-09-01 Sep   1951   -1.1       -0.767
#>  9 1951-10-01 Oct   1951   -1         -0.967
#> 10 1951-11-01 Nov   1951   -0.8       -0.833
#> # ... with 803 more rows
…
